<?xml version="1.0" standalone="no"?>
<!DOCTYPE svg PUBLIC "-//W3C//DTD SVG 1.1//EN" "http://www.w3.org/Graphics/SVG/1.1/DTD/svg11.dtd" >
<svg xmlns="http://www.w3.org/2000/svg">
<metadata>Generated by IcoMoon</metadata>
<defs>
<font id="icomoon" horiz-adv-x="1024">
<font-face units-per-em="1024" ascent="960" descent="-64" />
<missing-glyph horiz-adv-x="1024" />
<glyph unicode="&#x20;" horiz-adv-x="512" d="" />
<glyph unicode="&#xe900;" glyph-name="3d-modeling" d="M934 538c-3.736 0-7.292-0.66-10.906-1.102l-106.4 208.802c15.594 16.19 25.306 38.098 25.306 62.3 0 49.628-40.372 90-90 90-39.060 0-72.048-25.156-84.474-60h-311.052c-12.426 34.844-45.414 60-84.474 60-49.628 0-90-40.372-90-90 0-24.202 9.712-46.11 25.306-62.3l-106.4-208.802c-3.614 0.442-7.17 1.102-10.906 1.102-49.628 0-90-40.372-90-90s40.372-90 90-90c3.736 0 7.292 0.66 10.906 1.102l106.4-208.802c-15.594-16.19-25.306-38.098-25.306-62.3 0-49.628 40.372-90 90-90 39.060 0 72.048 25.156 84.474 60h311.052c12.426-34.844 45.414-60 84.474-60 49.628 0 90 40.372 90 90 0 24.202-9.712 46.11-25.306 62.3l106.4 208.802c3.614-0.442 7.17-1.102 10.906-1.102 49.628 0 90 40.372 90 90s-40.372 90-90 90zM752 718c3.736 0 7.292 0.66 10.906 1.102l106.37-208.744-148.020 50.274c0.206 2.472 0.744 4.844 0.744 7.368 0 27.084-12.276 51.12-31.264 67.632l60.622 82.434c0.22 0 0.422-0.066 0.642-0.066zM842.692 456.074l-315.74-78.424c-0.032 0.052-0.054 0.118-0.092 0.168l78.48 104.67c8.478-2.656 17.318-4.49 26.66-4.49 25.408 0 48.282 10.676 64.662 27.664l146.030-49.588zM667.526 778c5.256-14.732 14.162-27.564 25.738-37.632l-60.622-82.434c-0.22 0-0.422 0.066-0.64 0.066-20.182 0-38.632-6.914-53.658-18.176l-207.262 138.176h296.444zM545.018 589.932c-1.784-7.060-3.018-14.326-3.018-21.932 0-18.424 5.604-35.54 15.14-49.82l-78.48-104.67c-8.478 2.656-17.318 4.49-26.66 4.49-0.56 0-1.072-0.154-1.63-0.164l-117.616 313.608 212.264-141.512zM261.096 719.1c3.612-0.44 7.168-1.1 10.904-1.1 0.56 0 1.072 0.154 1.63 0.164l120.648-321.694c-4.742-4.002-9.042-8.43-12.872-13.32l-201.574 66.508c-0.44 23.532-9.91 44.832-25.136 60.64l106.4 208.802zM298.658 173.51c-8.476 2.656-17.316 4.49-26.658 4.49-3.736 0-7.292-0.66-10.906-1.102l-106.4 208.802c2.142 2.226 3.992 4.714 5.9 7.148l201.574-66.508c0.334-17.78 5.728-34.322 14.97-48.16l-78.48-104.67zM356.474 118c-2.498 7.006-5.548 13.732-9.614 19.82l78.48 104.67c8.478-2.656 17.318-4.49 26.66-4.49 17.388 0 33.49 5.178 47.266 13.752l167.18-133.752h-309.972zM762.908 176.9c-3.616 0.44-7.172 1.1-10.908 1.1-17.388 0-33.49-5.178-47.266-13.752l-168.046 134.444c2.288 6.592 3.746 13.502 4.442 20.688l317.92 78.97c3.018-4.538 6.49-8.738 10.258-12.648l-106.4-208.802z" />
<glyph unicode="&#xe901;" glyph-name="drone" d="M670.897 147.862h-194.207v-141.241h-141.241v-52.966c0-9.724 7.931-17.655 17.655-17.655h317.793c9.724 0 17.655 7.931 17.655 17.655v176.552c0 9.724-7.931 17.655-17.655 17.655zM582.621-28.69c-38.948 0-70.621 31.672-70.621 70.621s31.672 70.621 70.621 70.621 70.621-31.672 70.621-70.621-31.672-70.621-70.621-70.621zM141.241 287.69v-35.681c40.233-8.207 70.621-43.853 70.621-86.491h-35.31c0 29.198-23.767 52.966-52.966 52.966s-52.966-23.767-52.966-52.966 23.767-52.966 52.966-52.966v-35.31c-42.621 0-78.284 30.388-86.491 70.621h-35.681c8.612-59.802 60.043-105.931 122.172-105.931 68.147 0 123.586 55.44 123.586 123.586 0 62.129-46.129 113.56-105.931 122.172zM617.931 41.931c0-19.5-15.81-35.31-35.31-35.31s-35.31 15.81-35.31 35.31 15.81 35.31 35.31 35.31 35.31-15.81 35.31-35.31zM1.414 183.172h35.681c7.043 34.534 34.302 61.793 68.836 68.836v35.681c-54.009-7.767-96.75-50.509-104.517-104.517zM141.241 749.922v-35.681c54.009 7.784 96.75 50.509 104.517 104.517h-35.681c-7.043-34.534-34.302-61.793-68.836-68.836zM900.414 924.69v-35.31c-29.198 0-52.966-23.767-52.966-52.966s23.767-52.966 52.966-52.966 52.966 23.767 52.966 52.966h35.31c0-42.621-30.388-78.284-70.621-86.491v-35.681c59.802 8.612 105.931 60.043 105.931 122.172 0 68.147-55.44 123.586-123.586 123.586-62.129 0-113.56-46.129-122.172-105.931h35.681c8.207 40.233 43.871 70.621 86.491 70.621zM882.759 714.241v35.681c-34.534 7.043-61.793 34.302-68.836 68.836h-35.681c7.767-54.009 50.509-96.75 104.517-104.517zM105.931 714.241v35.681c-40.233 8.207-70.621 43.871-70.621 86.491h35.31c0-29.198 23.767-52.966 52.966-52.966s52.966 23.767 52.966 52.966-23.767 52.966-52.966 52.966v35.31c42.621 0 78.284-30.388 86.491-70.621h35.681c-8.612 59.802-60.043 105.931-122.172 105.931-68.147 0-123.586-55.44-123.586-123.586 0-62.129 46.129-113.56 105.931-122.172zM617.931 606.897h-211.862v-211.862h211.862zM582.621 430.345h-141.241v35.31h141.241zM582.621 536.276h-141.241v35.31h141.241zM812 297.457l-94.879 120.862c-18.431 23.483-28.569 52.845-28.569 82.647s10.138 59.164 28.552 82.629l94.879 120.879c-16.793 11.284-31.284 25.69-42.716 42.371l-36.966-28.629c-33.828-26.259-76.095-40.698-118.922-40.698h-202.759c-42.845 0-85.095 14.44-118.94 40.698l-36.974 28.629c-11.422-16.681-25.914-31.086-42.707-42.371l94.879-120.862c18.431-23.483 28.569-52.845 28.569-82.647s-10.138-59.164-28.552-82.629l-94.879-120.879c16.793-11.284 31.284-25.69 42.716-42.371l36.966 28.629c33.828 26.259 76.095 40.698 118.922 40.698h202.741c42.845 0 85.095-14.44 118.94-40.698l36.966-28.629c11.448 16.681 25.94 31.086 42.733 42.371zM653.241 359.724h-282.483v282.483h282.483zM476.69 289.103h70.621v-105.931h-70.621zM918.069 287.69v-35.681c34.534-7.043 61.793-34.302 68.836-68.836h35.681c-7.767 54.009-50.509 96.75-104.517 104.517zM900.414 77.241v35.31c29.198 0 52.966 23.767 52.966 52.966s-23.767 52.966-52.966 52.966-52.966-23.767-52.966-52.966h-35.31c0 42.621 30.388 78.284 70.621 86.491v35.681c-59.802-8.612-105.931-60.043-105.931-122.172 0-68.147 55.44-123.586 123.586-123.586 62.129 0 113.56 46.129 122.172 105.931h-35.681c-8.207-40.233-43.871-70.621-86.491-70.621zM353.103 147.862c-9.724 0-17.655-7.931-17.655-17.655v-88.276h105.931v105.931zM406.069 77.241h-35.31v35.31h35.31z" />
<glyph unicode="&#xe902;" glyph-name="street-view" d="M767.999 371.201c-103.68 0-201.473-35.839-278.527-93.696-17.41-14.081-28.673-35.585-28.673-59.904v-281.599h358.399c56.321-0.002 102.401 46.078 102.401 102.398v305.921c-48.384 17.15-100.097 26.88-153.6 26.88zM1024 703.999c0-141.385-114.615-256.001-256.001-256.001s-256.001 114.615-256.001 256.001c0 141.385 114.615 256.001 256.001 256.001s256.001-114.615 256.001-256.001zM435.199 703.999c0 55.553 13.824 107.52 37.632 153.6h-370.43c-56.321 0-102.401-46.080-102.401-102.398v-716.8c0-28.159 11.52-53.76 30.209-72.449l502.526 502.528c-60.158 60.415-97.536 143.616-97.536 235.519z" />
<glyph unicode="&#xe903;" glyph-name="video-player" d="M304.558 107.536l-7.506 1.876 7.506 1.876c32.598 8.148 55.364 37.308 55.364 70.908 0 40.304-32.788 73.094-73.092 73.094h-111.568c-16.314 0-29.538-13.226-29.538-29.538s13.226-29.538 29.538-29.538h111.568c7.73 0 14.016-6.288 14.016-14.018 0-6.444-4.366-12.034-10.616-13.598l-74.074-18.518c-18.698-4.674-31.756-21.4-31.756-40.67s13.058-35.998 31.756-40.67l74.074-18.518c6.25-1.562 10.616-7.154 10.616-13.598 0-7.73-6.286-14.018-14.016-14.018h-111.568c-16.314 0-29.538-13.226-29.538-29.538s13.226-29.538 29.538-29.538h111.568c40.304 0 73.092 32.79 73.092 73.094 0 33.6-22.768 62.762-55.364 70.912zM531.39 138.95h-67.412v28.632c0 15.79 12.846 28.632 28.632 28.632h96.952c16.314 0 29.538 13.226 29.538 29.538s-13.226 29.538-29.538 29.538h-96.952c-48.364 0-87.71-39.346-87.71-87.71v-116.342c0-48.364 39.346-87.71 87.71-87.71h38.78c48.364 0 87.71 39.346 87.71 87.71-0.002 48.366-39.346 87.712-87.71 87.712zM531.39 22.606h-38.78c-15.79 0-28.632 12.844-28.632 28.632v28.632h67.412c15.79 0 28.632-12.844 28.632-28.632s-12.842-28.632-28.632-28.632zM790.568 255.292h-38.78c-48.364 0-87.71-39.346-87.71-87.71v-116.342c0-48.364 39.346-87.71 87.71-87.71h38.78c48.364 0 87.71 39.346 87.71 87.71v116.342c-0.002 48.364-39.346 87.71-87.71 87.71zM819.2 51.24c0-15.79-12.844-28.632-28.632-28.632h-38.78c-15.79 0-28.632 12.844-28.632 28.632v116.342c0 15.79 12.844 28.632 28.632 28.632h38.78c15.79 0 28.632-12.844 28.632-28.632v-116.342zM384 714.998v-185.364l211.844 92.682zM876.308 932.47h-728.616c-81.438 0-147.692-66.254-147.692-147.692v-324.924c0-81.438 66.254-147.692 147.692-147.692h728.616c81.438 0 147.692 66.254 147.692 147.692v324.924c0 81.438-66.254 147.692-147.692 147.692zM681.38 595.256l-315.076-137.846c-3.79-1.658-7.824-2.478-11.838-2.478-5.662 0-11.288 1.626-16.17 4.816-8.344 5.456-13.372 14.754-13.372 24.722v275.692c0 9.968 5.028 19.264 13.372 24.722 8.34 5.456 18.876 6.338 28.008 2.34l315.076-137.846c10.75-4.704 17.698-15.326 17.698-27.062s-6.948-22.356-17.698-27.060z" />
<glyph unicode="&#xe904;" glyph-name="virtual-reality-1" d="M885.324 765.786c-9.302 4.61-20.32 4.084-29.14-1.386-8.818-5.472-14.184-15.114-14.184-25.492v-259.208c-0.516-0.226-1.038-0.454-1.554-0.68-18.322-7.97-37.938-15.178-58.618-21.614-48.338 59.784-101.446 77.556-139.036 92.59-0.052 0.022-0.104 0.042-0.156 0.062l-39.686 15.874c37.868 23.598 65.98 61.696 76.38 107.564 25.588 15.888 42.67 44.232 42.67 76.504 0 27.662-12.554 52.438-32.252 68.96-8.68 37.154-28.966 70.996-58.056 96.324-33.122 28.836-75.628 44.716-119.692 44.716s-86.572-15.88-119.692-44.716c-29.092-25.328-49.376-59.168-58.056-96.322-19.698-16.522-32.252-41.3-32.252-68.962 0-32.272 17.082-60.616 42.67-76.504 10.398-45.868 38.51-83.964 76.378-107.564l-39.69-15.876c-0.048-0.020-0.096-0.038-0.144-0.058-35.026-14.010-89.856-31.76-139.042-92.592-20.682 6.434-40.296 13.644-58.618 21.614-1.194 0.52-2.378 1.040-3.556 1.564v258.322c0 10.378-5.364 20.020-14.184 25.492-8.82 5.47-19.838 5.998-29.14 1.386-88.134-43.688-136.674-102.564-136.674-165.784v-424c0-68.72 56.688-131.226 159.622-176.002 94.874-41.27 220.016-63.998 352.378-63.998 271.78 0 512 97.206 512 240v424.002c0 0 0 0 0 0.002-0.002 62.58-49.252 121.454-138.676 165.782zM653.752 480.91c23.184-9.796 44.206-23.516 62.28-40.566-27.988-5.942-57.314-10.634-87.62-14.004 10.906 16.062 19.552 34.46 25.34 54.57zM632 780c16.542 0 30-13.458 30-30s-13.458-30-30-30h-150v60h150zM512 900c44.718 0 84.126-23.624 105.548-60h-211.096c21.424 36.376 60.83 60 105.548 60zM362 750c0 16.542 13.458 30 30 30h30v-60h-30c-16.542 0-30 13.458-30 30zM412.944 660.2h198.114c-19.046-36.712-56.738-60.2-99.058-60.2-42.382 0-80.038 23.542-99.056 60.2zM597.708 503.404c-11.736-48.802-46.084-83.404-85.708-83.404-39.626 0-73.974 34.602-85.71 83.404l36.852 14.742c10.338 4.136 17.426 13.612 18.65 24.5 9.822-1.732 19.916-2.646 30.208-2.646s20.386 0.914 30.208 2.646c1.224-10.888 8.31-20.364 18.648-24.5l36.852-14.742zM370.25 480.908c5.786-20.11 14.434-38.506 25.338-54.57-30.306 3.372-59.632 8.064-87.62 14.004 18.072 17.052 39.096 30.772 62.282 40.566zM120 686.754v-173.074c-38.754 26.976-60 56.97-60 86.32 0 29.648 20.972 59.62 60 86.754zM129.68 83.254l80.41 80.41 159.412-158.062c-79.434 11.040-172.812 34.95-239.822 77.652zM512-4c-16.384 0-32.63 0.374-48.7 1.094l-149.524 148.256 78.224 78.224 128.788-128.786c11.714-11.716 30.71-11.716 42.426 0l68.786 68.786 134.686-134.684c-74.894-21.398-162.682-32.89-254.686-32.89zM964 176c0-58.636-80.050-103.396-134.688-125.65-1.040 1.526-2.22 2.984-3.574 4.338l-172.526 172.526c-11.714 11.716-30.71 11.716-42.426 0l-68.786-68.788-128.788 128.786c-11.714 11.716-30.71 11.716-42.426 0l-99.616-99.618-40.048 39.708c-11.728 11.628-30.654 11.59-42.336-0.090l-105.39-105.39c-15.286 17.732-23.396 36.076-23.396 54.178v308.622c106.432-93.608 308.246-124.622 452-124.622 146.846 0 346.434 31.782 452 124.628v-308.628zM902 512.3v174.524c39.898-27.512 62-57.98 62-86.824 0-29.852-21.978-60.37-62-87.7zM812 356c-49.626 0-90-40.374-90-90s40.374-90 90-90 90 40.374 90 90-40.374 90-90 90zM812 236c-16.542 0-30 13.458-30 30s13.458 30 30 30 30-13.458 30-30-13.458-30-30-30z" />
<glyph unicode="&#xe905;" glyph-name="video-marketing" d="M934 898h-844c-49.625 0-90-40.375-90-90v-720c0-49.625 40.375-90 90-90h844c49.625 0 90 40.375 90 90v720c0 49.625-40.375 90-90 90zM482 118v-60h-180v60zM542 118h180v-60h-180zM60 178v540h904v-540zM542 778v60h180v-60zM482 778h-180v60h180zM964 808v-30h-182v60h152c16.539 0 30-13.461 30-30zM90 838h152v-60h-182v30c0 16.539 13.461 30 30 30zM60 88v30h182v-60h-152c-16.539 0-30 13.461-30 30zM934 58h-152v60h182v-30c0-16.539-13.461-30-30-30zM650 472l-240 180c-19.797 14.844-48 0.594-48-24v-360c0-11.367 6.422-21.75 16.586-26.836 10.141-5.070 22.313-3.992 31.414 2.836l240 180c7.555 5.664 12 14.555 12 24s-4.445 18.336-12 24zM422 328v240l160-120z" />
<glyph unicode="&#xe906;" glyph-name="wired-gloves" d="M266.313 0.491c22.848-39.83 65.241-64.429 111.161-64.491h269.089c45.902 0.063 88.277 24.643 111.125 64.455l84.938 148.625c11.009 19.321 16.804 41.17 16.804 63.402v272.089c-0.009 9.634-2.571 19.098-7.42 27.429-2.464 4.232-5.446 8.143-8.875 11.634-15.777 15.464-39.277 19.982-59.67 11.464-20.384-8.527-33.679-28.429-33.75-50.527v-128h-36.571v420.571c0 30.295-24.563 54.857-54.857 54.857s-54.857-24.563-54.857-54.857v-420.571h-36.571v548.571c0 30.295-24.563 54.857-54.857 54.857s-54.857-24.563-54.857-54.857v-548.571h-36.571v420.571c0 30.295-24.563 54.857-54.857 54.857s-54.857-24.563-54.857-54.857v-420.571h-36.571v292.571c0 30.295-24.563 54.857-54.857 54.857s-54.857-24.563-54.857-54.857v-436.571c0.009-22.277 5.821-44.17 16.857-63.527zM786.286 521.143h36.571v-36.571h-36.571zM786.286 411.429h36.571v-36.571h-36.571zM640 813.714h36.571v-36.571h-36.571zM640 484.571h36.571v-36.571h-36.571zM493.714 941.714h36.571v-36.571h-36.571zM493.714 484.571h36.571v-36.571h-36.571zM347.429 813.714h36.571v-36.571h-36.571zM347.429 484.571h36.571v-36.571h-36.571zM201.143 685.714h36.571v-36.571h-36.571zM201.143 484.571h36.571v-36.571h-36.571zM201.143 411.429c0 10.098 8.187 18.286 18.286 18.286s18.286-8.187 18.286-18.286v-133.634l91.429-34.339v21.687c0 10.098 8.187 18.286 18.286 18.286h38.75l-34.741 43.429c-2.598 3.241-4.009 7.277-4.009 11.429v73.143c0 10.098 8.187 18.286 18.286 18.286s18.286-8.187 18.286-18.286v-66.723l49.027-61.277h60.687v128c0 10.098 8.187 18.286 18.286 18.286s18.286-8.187 18.286-18.286v-128h60.687l49.027 61.277v66.723c0 10.098 8.187 18.286 18.286 18.286s18.286-8.187 18.286-18.286v-73.143c0-4.152-1.411-8.187-4.009-11.429l-34.741-43.429h38.75c10.098 0 18.286-8.187 18.286-18.286v-21.687l91.429 34.339v60.491c0 10.098 8.187 18.286 18.286 18.286s18.286-8.187 18.286-18.286v-73.143c0.009-7.625-4.714-14.446-11.848-17.134l-116.152-43.634v-231.804c0-10.098-8.187-18.286-18.286-18.286h-329.143c-10.098 0-18.286 8.187-18.286 18.286v231.804l-116.152 43.634c-7.134 2.688-11.857 9.509-11.848 17.134zM658.286 246.857h-292.571v-256h292.571zM585.143 9.143h-36.571v36.571h36.571zM640 9.143h-36.571v36.571h36.571zM640 64h-36.571v36.571h36.571z" />
<glyph unicode="&#xe907;" glyph-name="augmented-reality" d="M697.208 649.020c-110.75 71.916-259.666 71.938-370.416-0.020-17.626-11.438-28.126-31.354-28.126-53.25v-297.084c0-11.792 9.542-21.334 21.334-21.334h64v-320c0-11.792 9.542-21.334 21.334-21.334h213.334c11.792 0 21.334 9.542 21.334 21.334v320h64c11.792 0 21.334 9.542 21.334 21.334v297.084c-0.002 21.896-10.502 41.812-28.128 53.27zM611.024 892.404c-15.642 39.498-54.014 67.596-99.024 67.596s-83.382-28.098-99.024-67.596c-218.128-15.686-412.976-83.35-412.976-199.070 0-2.126 0-501.334 0-501.334 0-71.334 73.542-132.958 201.75-169.062 3.834-1.084 7.708-1.604 11.584-1.604 9.208 0 18.25 2.98 25.75 8.646 10.666 8.062 16.916 20.666 16.916 34.020v505.916c0 19.104-12.708 35.896-31.126 41.062-102.376 28.812-139.542 65.042-139.542 82.354 0 36.118 123.494 98.57 330.924 113.86 17.274-35.672 53.508-60.526 95.742-60.526s78.468 24.854 95.742 60.526c207.432-15.29 330.924-77.742 330.924-113.86 0-17.312-37.166-53.542-139.542-82.354-18.414-5.166-31.122-21.958-31.122-41.062v-505.916c0-13.354 6.25-25.958 16.916-34.020 7.5-5.666 16.542-8.646 25.75-8.646 3.876 0 7.75 0.52 11.584 1.604 128.208 36.104 201.75 97.728 201.75 169.062 0 0 0 499.208 0 501.334 0 115.72-194.848 183.384-412.976 199.070zM170.666 538.334v-186.206c-12.032-4.010-23.898-8.552-35.458-13.752-21.5-9.688-31.084-34.938-21.416-56.416 7.126-15.812 22.666-25.188 38.958-25.188 5.834 0 11.792 1.23 17.458 3.77 0.152 0.068 0.308 0.112 0.458 0.18v-136.95c-58.19 24.388-85.040 52.368-85.286 67.994 0.48 2.612 4.376 11.528 17.578 24.63 16.708 16.604 16.792 43.626 0.166 60.334-5.114 5.154-11.316 8.174-17.792 10.172v288.472c22.502-13.020 50.544-25.54 85.334-37.040zM938.666 287.518c-5.632-2.126-10.958-5.226-15.458-9.79-16.458-16.854-16.166-43.854 0.666-60.334 9.542-9.354 14.792-18.376 14.792-25.396 0-15.584-26.876-43.73-85.334-68.23v135.054c0.75-0.296 1.592-0.546 2.334-0.846 5.25-2.126 10.626-3.126 15.958-3.126 16.876 0 32.876 10.104 39.584 26.73 8.792 21.854-1.792 46.73-23.626 55.52-10.902 4.394-22.394 8.468-34.25 12.292v188.938c34.792 11.5 62.834 24.020 85.334 37.042v-287.854z" />
<glyph unicode="&#xe908;" glyph-name="vr" d="M421.999 630.001c0-16.569-13.431-30-30-30s-30 13.431-30 30c0 16.569 13.431 30 30 30s30-13.431 30-30zM421.999 510.001c0-16.569-13.431-30-30-30s-30 13.431-30 30c0 16.569 13.431 30 30 30s30-13.431 30-30zM811.998 780h-91.374c-71.474 111.604-194.546 180-328.625 180-216.326 0-391.999-175.18-391.999-389.999 0-12.718 0-107.282 0-120 0-44.368 20.912-103.32 60-135.528v-348.471c0-16.568 13.432-30 30-30h421.999c16.568 0 30 13.432 30 30v94h90c49.626 0 90 40.374 90 90v107.574l51.212 51.214c9.13 9.13 11.394 23.080 5.62 34.628l-8.292 16.584h41.46c16.568 0 30 13.432 30 30v359.999c0 16.568-13.432 30-30 30zM481.999 887.356c64.074-18.274 121.712-55.644 164.528-107.356h-14.528c-44.604 0-84.7-19.592-112.2-50.596-9.972 14.012-22.868 25.792-37.8 34.452v123.5zM601.999 714.84v-289.679c-34.918 12.384-60 45.73-60 84.84v120c0 39.11 25.082 72.456 60 84.84zM361.999 898.638c9.886 0.884 19.886 1.362 30 1.362 10.070 0 20.074-0.5 30-1.414v-118.586h-60v118.638zM361.999 720h60c33.084 0 60-26.916 60-60 0-18.218 0-150.662 0-180 0-33.084-26.916-60-60-60h-60c-33.084 0-60 26.916-60 60v180c0 33.084 26.916 60 60 60zM301.999 887.672v-123.816c-35.832-20.782-60-59.538-60-103.856h-169.45c31.388 109.92 118.788 196.656 229.45 227.672zM60 570.001c0 10.114 0.486 20.116 1.386 30h180.614v-60h-182v30zM670.787 291.215c-5.628-5.628-8.788-13.258-8.788-21.214v-120c0-16.542-13.458-30-30-30h-130.226c-24.084 0-46.726 9.378-63.756 26.408l-144.804 144.804c-11.714 11.716-30.71 11.716-42.426 0s-11.716-30.71 0-42.426l144.804-144.804c23.644-23.644 53.796-38.394 86.408-42.66v-65.322h-361.999v333.999c0 10.708-5.708 20.606-14.978 25.968-24.404 14.118-45.022 57.18-45.022 94.032v30h182c0-66.168 53.832-120 120-120h60c40.32 0 76.030 20.008 97.8 50.596 27.5-31.004 67.596-50.596 112.2-50.596h71.46l12.038-24.076-44.71-44.71zM781.998 420.001h-120v299.999h120v-299.999zM1015.212 831.212c-11.716 11.718-30.712 11.718-42.426 0l-60-60c-11.716-11.716-11.716-30.71 0-42.426 11.714-11.716 30.712-11.716 42.426 0l60 60c11.716 11.716 11.716 30.71 0 42.426zM993.998 600.001h-60c-16.568 0-30-13.432-30-30s13.432-30 30-30h60c16.568 0 30 13.432 30 30s-13.432 30-30 30zM1015.212 351.213l-60 60c-11.714 11.716-30.71 11.716-42.426 0-11.718-11.716-11.718-30.71 0-42.426l60-60c11.714-11.716 30.712-11.716 42.426 0 11.716 11.716 11.716 30.71 0 42.426z" />
<glyph unicode="&#xe909;" glyph-name="urban" d="M913.396 520.218c-6.156 2.404-13.1 1.612-18.554-2.116-5.456-3.726-8.72-9.908-8.72-16.516v-156.932c-9.258-3.314-19.142-6.544-29.62-9.67v605.016c0 11.046-8.954 20-20 20h-335c-11.046 0-20-8.954-20-20v-120h-294c-11.046 0-20-8.956-20-20v-465.014c-10.48 3.126-20.364 6.356-29.622 9.67v156.932c0 6.608-3.264 12.79-8.72 16.516-5.454 3.726-12.398 4.516-18.554 2.116-73.006-28.508-110.022-63.548-110.022-104.148v-316.904c0-48.612 54.752-90.258 158.338-120.436 94.582-27.556 219.976-42.732 353.076-42.732 133.102 0 258.496 15.176 353.080 42.73 103.586 30.178 158.338 71.824 158.338 120.436v316.904c0.002 40.6-37.014 75.64-110.020 104.148zM521.5 920h295v-595.696c-8.25-1.968-16.794-3.868-25.598-5.696-6.53-1.342-13.168-2.632-19.902-3.874v34.472c0 11.046-8.954 20-20 20h-164c-11.046 0-20-8.954-20-20v-55.388c-11.068-0.366-22.204-0.626-33.394-0.77-1.408-0.018-2.814-0.034-4.228-0.048-1.996-0.020-3.994-0.038-5.994-0.052-0.626-0.004-1.258-0.004-1.884-0.008v627.060zM731 329.208v-21.096c-1.464-0.216-2.934-0.428-4.404-0.64-1.724-0.248-3.452-0.492-5.184-0.734-5.112-0.714-10.256-1.406-15.45-2.066-0.018-0.002-0.038-0.004-0.056-0.008-31.686-4.026-64.844-7.050-98.904-9.026v33.57h123.998zM207.498 780h274v-486.812c-25.004 0.456-49.742 1.478-74 3.036v62.776c0 11.044-8.954 20-20 20h-86c-11.046 0-20-8.956-20-20v-49.104c-19.652 3.094-38.594 6.584-56.666 10.464-5.906 1.282-11.688 2.598-17.334 3.944v455.696zM367.498 339v-39.664c-15.616 1.418-30.972 3.062-46 4.932v34.732h46zM97.878 471.020v-109.716c-10.684 5.216-19.944 10.524-27.716 15.85-15.69 10.866-25.598 21.93-28.606 32.326-0.006 0.026-0.012 0.050-0.020 0.076-0.226 0.79-0.4 1.576-0.546 2.358-0.080 0.444-0.158 0.89-0.214 1.332-0.032 0.246-0.058 0.492-0.082 0.736-0.064 0.7-0.112 1.396-0.112 2.090 0 17.258 20.944 37.036 57.296 54.948zM40.582 99.166v249.87c11.546-8.77 25.582-17.122 42.084-25.036 0.19-0.092 0.378-0.184 0.568-0.274 1.808-0.862 3.648-1.72 5.514-2.572 0.678-0.31 1.344-0.624 2.030-0.932 0.902-0.406 1.834-0.808 2.75-1.21 5.354-2.366 10.932-4.684 16.734-6.954 0.116-0.046 0.226-0.092 0.344-0.138 0.014-0.006 0.028-0.008 0.040-0.014 14.69-5.734 30.768-11.17 48.276-16.272 68.84-20.054 154.006-33.544 246.58-39.406-6.584-5.11-12.888-10.7-18.836-16.8-33.318-34.166-51.666-79.066-51.666-126.428 0-20.252 3.428-39.718 9.72-57.856-42.778 4.842-82.26 11.466-117.714 19.776-18.89 4.428-36.42 9.296-52.102 14.47-10.492 3.468-21.798-2.236-25.26-12.724-3.46-10.49 2.238-21.798 12.726-25.26 16.798-5.542 35.472-10.734 55.506-15.432 44.096-10.334 93.978-18.152 148.366-23.27 8.322-12.056 18.096-23.036 29.074-32.678-222.416 15.81-354.734 74.966-354.734 119.14zM511.998-24c-75.542 0-137 61.456-137 137 0 75.836 62.738 139.904 137 139.904s137-64.068 137-139.904c0.002-75.544-61.456-137-137-137zM983.416 99.168c0.002-44.176-132.316-103.332-354.734-119.142 10.976 9.644 20.752 20.622 29.074 32.678 54.386 5.12 104.27 12.938 148.366 23.272 84.22 19.742 118.724 41.836 129.65 50.42 8.686 6.822 10.196 19.396 3.372 28.082s-19.398 10.2-28.082 3.37c-4.906-3.854-33.458-24.034-114.068-42.928-35.454-8.31-74.938-14.932-117.716-19.776 6.292 18.138 9.72 37.604 9.72 57.856 0 47.362-18.348 92.262-51.664 126.43-5.948 6.1-12.252 11.688-18.836 16.8 92.574 5.862 177.74 19.35 246.58 39.406 17.508 5.1 33.586 10.536 48.276 16.272 0.014 0.006 0.028 0.008 0.040 0.014 0.116 0.046 0.226 0.092 0.342 0.138 5.802 2.27 11.38 4.588 16.734 6.954 0.916 0.404 1.848 0.804 2.75 1.21 0.684 0.31 1.352 0.622 2.030 0.932 1.866 0.852 3.706 1.71 5.514 2.572 0.19 0.092 0.378 0.182 0.568 0.274 16.5 7.914 30.538 16.264 42.084 25.036v-249.87zM983.302 413.98c-0.024-0.244-0.050-0.49-0.082-0.736-0.056-0.442-0.132-0.886-0.214-1.332-0.146-0.782-0.32-1.568-0.546-2.358-0.008-0.026-0.012-0.050-0.020-0.076-3.008-10.396-12.918-21.462-28.608-32.326-7.772-5.324-17.032-10.634-27.716-15.85v109.718h0.002c36.352-17.912 57.298-37.69 57.298-54.95 0-0.692-0.046-1.39-0.114-2.090zM113.39 117.49l-0.448 0.352c-8.68 6.828-21.256 5.324-28.084-3.358-2.88-3.662-4.278-8.018-4.28-12.344-0.002-5.926 2.618-11.794 7.638-15.74l0.448-0.352c3.666-2.882 8.022-4.28 12.35-4.28 5.924 0 11.79 2.62 15.734 7.636 2.88 3.662 4.278 8.018 4.28 12.344 0.002 5.928-2.618 11.796-7.638 15.742zM387.498 741h-86c-11.046 0-20-8.956-20-20v-118c0-11.046 8.954-20 20-20h86c11.046 0 20 8.954 20 20v118c0 11.044-8.952 20-20 20zM367.498 623h-46v78h46v-78zM387.498 560h-86c-11.046 0-20-8.954-20-20v-118c0-11.044 8.954-20 20-20h86c11.046 0 20 8.956 20 20v118c0 11.046-8.952 20-20 20zM367.498 442h-46v78h46v-78zM751 871.834h-164c-11.046 0-20-8.956-20-20v-92c0-11.044 8.954-20 20-20h164c11.046 0 20 8.956 20 20v92c0 11.044-8.954 20-20 20zM731 779.834h-124v52h124v-52zM751 704.29h-164c-11.046 0-20-8.956-20-20v-92c0-11.044 8.954-20 20-20h164c11.046 0 20 8.956 20 20v92c0 11.046-8.954 20-20 20zM731 612.29h-124v52h124v-52zM751 536.75h-164c-11.046 0-20-8.954-20-20v-92c0-11.044 8.954-20 20-20h164c11.046 0 20 8.956 20 20v92c0 11.046-8.954 20-20 20zM731 444.75h-124v52h124v-52zM595.76 135.63l-116.032 66.992c-6.188 3.572-13.81 3.572-20 0-6.188-3.572-10-10.176-10-17.32v-133.982c0-7.144 3.812-13.748 10-17.32 3.094-1.788 6.546-2.68 10-2.68 3.452 0 6.906 0.892 10 2.68l116.032 66.99c6.188 3.572 10 10.176 10 17.32 0 7.146-3.812 13.748-10 17.32zM489.728 85.96v64.702l56.032-32.352-56.032-32.35z" />
<glyph unicode="&#xe90a;" glyph-name="virtual-reality" d="M512 238c-66.53 0-129.976 3.852-188.312 10.698 35.196-164.104 109.386-312.698 188.312-312.698s153.116 148.594 188.312 312.698c-58.336-6.846-121.782-10.698-188.312-10.698zM260.546 257.622c-130.494 21.848-227.348 60.066-253.346 105.18 33.68-199.112 184.786-360.656 377.52-410.384-56.202 70.224-100.61 183.49-124.174 305.204zM763.454 257.622c-23.566-121.714-67.972-234.98-124.174-305.204 192.734 49.728 343.84 211.27 377.52 410.384-25.998-45.114-122.854-83.332-253.346-105.18zM872 960c-49.628 0-90-42.372-90-92s40.372-90 90-90c49.628 0 90 40.372 90 90s-40.372 92-90 92zM362 688c0 48.068-37.448 89.122-90.014 89.122s-89.986-41.054-89.986-89.122c0-16.582 13.418-30 30-30s30 13.418 30 30c0 15.454 11.73 29.056 28.754 29.714 17.776 0.686 31.246-13.026 31.246-29.714 0-16.542-13.32-30-30-30-16.582 0-30-13.418-30-30s13.418-30 30-30c16.546 0 30-13.32 30-30 0-16.582-13.348-30.45-31.308-29.708-16.776 0.694-28.692 14.024-28.692 29.708 0 16.582-13.418 30-30 30s-30-13.418-30-30c0-50.040 40.572-90 90-90 50.040 0 90 40.572 90 90 0 22.5-8.466 43.528-23.376 60.008 14.924 16.516 23.376 37.522 23.376 59.992zM752 778c-49.628 0-90-40.372-90-90v-120c0-49.628 40.372-90 90-90s90 40.372 90 90v120c0 49.628-40.372 90-90 90zM782 568c0-16.552-13.448-30-30-30s-30 13.448-30 30v120c0 16.552 13.448 30 30 30s30-13.448 30-30v-120zM512 658c-10.568 0-20.57-2.164-30-5.526v35.526c0 16.552 13.448 30 30 30 12.070 0 22.94-7.208 27.656-18.34 6.446-15.322 24.228-22.382 39.316-15.938 15.264 6.474 22.382 24.052 15.938 39.316-14.12 33.4-46.67 54.962-82.91 54.962-49.628 0-90-40.372-90-90v-120c0-49.628 40.372-90 90-90s90 40.372 90 90c0 49.628-40.372 90-90 90zM512 538c-16.552 0-30 13.448-30 30s13.448 30 30 30 30-13.448 30-30-13.448-30-30-30zM899.704 545.306c-11.046-71.894-72.77-127.306-147.704-127.306-49.24 0-92.636 24.17-120 60.926-27.364-36.756-70.76-60.926-120-60.926s-92.636 24.17-120 60.926c-27.364-36.756-70.76-60.926-120-60.926-74.934 0-136.658 55.412-147.704 127.306-76.098-26.202-124.296-60.142-124.296-97.306 0-82.84 230.336-150 512-150s512 67.16 512 150c0 37.164-48.198 71.104-124.296 97.306z" />
</font></defs></svg>